<?xml version="1.0" encoding="utf-8"?>
<!-- Generator: Adobe Illustrator 21.1.0, SVG Export Plug-In . SVG Version: 6.00 Build 0)  -->
<svg version="1.1" id="Слой_1" xmlns="http://www.w3.org/2000/svg" xmlns:xlink="http://www.w3.org/1999/xlink" x="0px" y="0px"
	 viewBox="0 0 64.5 85.7" style="enable-background:new 0 0 64.5 85.7;" xml:space="preserve">
<g>
	<path d="M6.2,56.6c-2.2,0-4,1.8-4,4s1.8,4,4,4h10V80c0,2.2,1.8,4,4,4s4-1.8,4-4V64.6h22.2c2.2,0,4-1.8,4-4s-1.8-4-4-4H24.2v-8.3
		h15.5c12.7,0,23.1-10.4,23.1-23.1S52.4,2.1,39.7,2.1H20.3c-2,0-3.6,1.4-3.9,3.3c-0.1,0.4-0.2,0.8-0.2,1.2v33.6h-10
		c-2.2,0-4,1.8-4,4s1.8,4,4,4h10v8.3h-10V56.6z M24.2,10.1h15.5c8.3,0,15.1,6.8,15.1,15.1S48,40.3,39.7,40.3H24.2V10.1z"/>
</g>
</svg>
