<?xml version="1.0" standalone="no"?> 
<!DOCTYPE svg PUBLIC "-//W3C//DTD SVG 1.1//EN" "http://www.w3.org/Graphics/SVG/1.1/DTD/svg11.dtd" >
<svg xmlns="http://www.w3.org/2000/svg">
<defs>
  <font id="iconic" horiz-adv-x="512">
    <font-face font-family="iconic"
      units-per-em="1001" ascent="1001"
      descent="0" />
    <missing-glyph horiz-adv-x="0" />
    <glyph glyph-name="arr-bottom"
      unicode="&#xE001;"
      horiz-adv-x="1725.0109589041097" d="M1704.4424657534248 866.6191780821918C1704.4424657534248 833.7095890410959 1693.472602739726 795.3150684931506 1666.0479452054794 767.8904109589041L936.5520547945204 38.3945205479453C909.1273972602738 10.9698630136986 881.7027397260274 0 843.3082191780821 0C804.913698630137 0 777.4890410958903 10.9698630136986 750.0643835616438 38.3945205479453L20.568493150685 767.8904109589041C-34.2808219178082 822.7397260273973 -34.2808219178082 905.013698630137 20.568493150685 959.86301369863C75.4178082191781 1014.7123287671232 152.2068493150685 1014.7123287671232 207.0561643835617 959.86301369863L843.3082191780821 323.6109589041096L1479.5602739726028 959.86301369863C1534.4095890410958 1014.7123287671232 1611.1986301369864 1014.7123287671232 1666.0479452054794 959.86301369863C1693.472602739726 932.4383561643835 1704.4424657534248 899.5287671232877 1704.4424657534248 866.6191780821918z" />
    <glyph glyph-name="arr-left"
      unicode="&#xE002;"
      horiz-adv-x="1001" d="M257.7780283203125 559.30875C257.7780283203125 575.1351074218751 263.8211748046876 590.965375 275.8800966796875 603.03602734375L655.7302705078125 982.87642578125C679.8930810546875 1007.039236328125 719.0689365234375 1007.039236328125 743.2219716796875 982.87642578125C767.3750068359375 958.723390625 767.3750068359375 919.55535546875 743.2219716796875 895.39058984375L407.1147158203125 559.30875L743.1985107421875 223.2132246093751C767.3515458984375 199.0601894531251 767.3515458984375 159.8862890625001 743.1985107421875 135.7352089843751C719.0454755859375 111.5606679687501 679.8813505859374 111.5606679687501 655.7185400390625 135.7352089843751L275.8664111328125 515.5697421875C263.8094443359375 527.646259765625 257.7780283203125 543.4765273437499 257.7780283203125 559.30875z" />
    <glyph glyph-name="arr-right"
      unicode="&#xE003;"
      horiz-adv-x="570.6070487304687" d="M509.9126747558593 515.5692534179688L130.0664110839844 135.7347202148438C105.9036005371094 111.5601791992187 66.7277450683594 111.5601791992187 42.5766649902344 135.7347202148438C18.4236298339844 159.8877553710938 18.4236298339844 199.0616557617189 42.5766649902344 223.2127358398437L378.6819657714844 559.3082612304688L42.5864403808594 895.3920561523437C18.4334052246094 919.5548666992188 18.4334052246094 958.7248569335939 42.5864403808594 982.8778920898438C66.7394755371093 1007.0407026367188 105.9133759277344 1007.0407026367188 130.0761864746094 982.8778920898438L509.9224501464845 603.0374936523438C521.9989677246093 590.9551108398438 528.0303837402344 575.1365737304687 528.0303837402344 559.3102163085938C528.0303837402344 543.4760385742188 521.9872372558593 527.6457709960938 509.9126747558594 515.5692534179689z" />
    <glyph glyph-name="cart-new"
      unicode="&#xE004;"
      horiz-adv-x="1206.205" d="M97.5975 880.88L367.8675 880.88L367.8675 360.36L918.4175 360.36L1108.6075 765.765L583.0824999999999 765.765M367.8675 135.135C367.8675 110.2573334438719 388.0348334438719 90.09 412.9125 90.09C437.7901665561281 90.09 457.9575 110.2573334438719 457.9575 135.135C457.9575 160.0126665561281 437.7901665561281 180.18 412.9125 180.18C388.0348334438719 180.18 367.8675 160.0126665561281 367.8675 135.135zM773.2724999999999 135.135C773.2724999999999 110.2573334438719 793.4398334438717 90.09 818.3174999999999 90.09C843.195166556128 90.09 863.3624999999998 110.2573334438719 863.3624999999998 135.135C863.3624999999998 160.0126665561281 843.195166556128 180.18 818.3174999999999 180.18C793.4398334438717 180.18 773.2724999999999 160.0126665561281 773.2724999999999 135.135z" />
    <glyph glyph-name="comp"
      unicode="&#xE005;"
      horiz-adv-x="1122.2086626620298" d="M6.962377489725 321.8517230477395L38.6095478975656 290.2045526398988L1115.2462851723049 290.2045526398988L1083.599114764464 321.8517230477395zM1083.599114764464 978.2140373063548H7.5953208978819V180.7053430287703H1083.599114764464V978.2140373063548H1083.599114764464zM319.3199494151123 22.7859626936453L350.967119822953 -8.8612077141954L802.5722415428392 -8.8612077141954L770.9250711349985 22.7859626936453zM545.2807461270946 29.1153967752134L576.9279165349352 -2.5317736326273L576.9279165349352 147.7922858046159L545.2807461270946 179.4394562124564z" />
    <glyph glyph-name="dislike"
      unicode="&#xE006;"
      horiz-adv-x="988.5451612903227" d="M395.0951612903227 362.1129032258065V177.5967741935483A138.38709677419357 138.38709677419357 0 0 1 533.4822580645161 39.2096774193547L717.9983870967742 454.3709677419354V961.7903225806452H196.7403225806452A92.25806451612904 92.25806451612904 0 0 1 104.4822580645161 883.3709677419355L39.9016129032258 468.2096774193548A92.25806451612904 92.25806451612904 0 0 1 118.3209677419355 362.1129032258064H395.0951612903227zM717.9983870967742 961.7903225806452H842.5467741935486A101.94516129032259 101.94516129032259 0 0 0 948.6435483870968 869.5322580645161V546.6290322580645A108.40322580645164 108.40322580645164 0 0 0 842.5467741935486 454.3709677419355H717.9983870967744" />
    <glyph glyph-name="like"
      unicode="&#xE007;"
      horiz-adv-x="1001" d="M927.6845703125002 365.4041015625C946.8443359375 389.842578125 956.0332031250002 416.0406249999999 954.86015625 443.020703125C953.6871093749997 472.7378906249999 940.3925781250002 496.0033203125 929.444140625 510.2753906249999C942.1521484375 541.9476562499999 947.03984375 591.8021484374999 904.6146484375 630.5126953125C873.5289062500001 658.861328125 820.7417968750001 671.5693359375 747.621875 668.0501953124999C696.2033203125 665.7041015625 653.1916015625 656.12421875 651.43203125 655.7332031249998H651.2365234375C641.4611328125 653.9736328124999 631.09921875 651.8230468749998 620.541796875 649.4769531249999C619.7597656250001 661.989453125 621.9103515625 693.0751953125 644.9802734375 763.0669921874999C672.3513671875 846.3533203124999 670.7873046875 910.0888671874998 639.8970703125 952.7095703124997C607.4427734374999 997.480859375 555.6332031249999 1000.9999999999998 540.38359375 1000.9999999999998C525.7205078125 1000.9999999999998 512.23046875 994.9392578125 502.6505859375 983.7953125C480.9492187499999 958.5748046874997 483.4908203124999 912.0439453124998 486.2279296874999 890.5380859374999C460.4208984374999 821.3283203125 388.0830078125 651.6275390624999 326.8890624999999 604.5101562499999C325.716015625 603.7281249999999 324.7384765625 602.7505859374999 323.7609375 601.7730468749999C305.7742187500001 582.8087890625 293.6527343749999 562.28046875 285.44140625 544.2937499999998C273.9064453125 550.5499999999998 260.8074218750001 554.0691406249998 246.730859375 554.0691406249998H127.47109375C82.504296875 554.0691406249998 46.13984375 517.5091796874999 46.13984375 472.7378906249997V155.0376953124998C46.13984375 110.0708984374998 82.6998046875 73.7064453124998 127.47109375 73.7064453124998H246.730859375C264.1310546875001 73.7064453124998 280.3582031250001 79.1806640624998 293.652734375 88.5650390624998L339.5970703125 83.0908203124998C346.6353515625001 82.1132812499998 471.7603515625 66.2771484374997 600.2089843750001 68.8187499999998C623.4744140625 67.0591796874998 645.3712890625001 66.0816406249998 665.7041015625001 66.0816406249998C700.7 66.0816406249998 731.1992187500001 68.8187499999998 756.6152343750001 74.2929687499998C816.4406250000001 87.0009765624998 857.3017578125001 112.4169921874998 878.0255859375001 149.7589843749999C893.8617187500001 178.3031249999999 893.8617187500001 206.6517578124999 891.3201171875002 224.6384765624998C930.226171875 259.8298828124998 937.0689453125 298.7359374999998 935.700390625 326.1070312499998C934.9183593750003 341.9431640625 931.3992187500002 355.433203125 927.6845703125002 365.4041015625zM127.4710937500001 126.4935546875C111.6349609375001 126.4935546875 98.9269531250001 139.3970703125 98.9269531250001 155.0376953125V472.9333984374999C98.9269531250001 488.76953125 111.8304687500001 501.4775390624999 127.4710937500001 501.4775390624999H246.7308593750001C262.5669921875001 501.4775390624999 275.2750000000001 488.5740234374999 275.2750000000001 472.9333984374999V155.2332031249999C275.2750000000001 139.3970703124999 262.371484375 126.6890624999999 246.7308593750001 126.6890624999999H127.4710937500001V126.4935546875zM877.6345703125002 388.2785156250002C869.4232421875001 379.6761718750002 867.8591796875002 366.5771484375 874.1154296875001 356.4107421875C874.1154296875001 356.215234375 882.1312500000001 342.5296875 883.1087890625001 323.7609375000002C884.4773437500002 298.1494140625 872.1603515625001 275.4705078125001 846.3533203125002 256.115234375C837.1644531250001 249.076953125 833.4498046875001 236.95546875 837.3599609375001 226.0070312500001C837.3599609375001 225.8115234375 845.7667968750001 200.0044921875 832.0812500000001 175.566015625C818.9822265625002 152.105078125 789.8515625000001 135.29140625 745.6667968750002 125.9070312500001C710.2798828125001 118.2822265625001 662.1849609375001 116.913671875 603.1416015625002 121.6058593750001C602.3595703125002 121.6058593750001 601.3820312500002 121.6058593750001 600.4044921875002 121.6058593750001C474.6929687500001 118.8687500000001 347.6128906250002 135.2914062500001 346.2443359375003 135.4869140625001H346.0488281250003L326.3025390625002 137.8330078125001C327.4755859375003 143.3072265625001 328.0621093750003 149.1724609375001 328.0621093750003 155.0376953125001V472.9333984374999C328.0621093750003 481.340234375 326.6935546875003 489.5515624999999 324.3474609375002 497.1763671874999C327.8666015625003 510.2753906249999 337.6419921875003 539.4060546874998 360.7119140625003 564.235546875C448.4949218750002 633.8363281249999 534.3228515625002 868.6412109374999 538.0375000000003 878.8076171875C539.6015625000002 882.91328125 539.9925781250003 887.4099609374999 539.2105468750003 891.9066406249999C535.8869140625004 913.803515625 537.0599609375003 940.5880859375 541.7521484375004 948.60390625C552.1140625000004 948.4083984375 580.0716796875004 945.47578125 596.8853515625003 922.2103515625C616.8271484375003 894.64375 616.0451171875003 845.3757812499999 594.5392578125003 780.076171875C561.6939453125003 680.5626953125 558.9568359375004 628.1666015624999 584.9593750000004 605.0966796875C597.8628906250004 593.56171875 615.0675781250003 592.9751953125 627.5800781250005 597.471875C639.5060546875004 600.208984375 650.8455078125004 602.5550781249999 661.5984375000004 604.3146484375C662.3804687500003 604.5101562499999 663.3580078125003 604.7056640624999 664.1400390625004 604.9011718749999C724.1609375000004 618.0001953125 831.6902343750004 626.0160156249999 869.0322265625005 591.99765625C900.7044921875004 563.0625 878.2210937500004 524.7429687499999 875.6794921875004 520.6373046875C868.4457031250004 509.6888671875 870.5962890625003 495.4167968749999 880.3716796875003 486.6189453124999C880.5671875000004 486.4234374999999 901.0955078125004 467.0681640624999 902.0730468750004 441.065625C902.855078125 423.6654296875 894.6437500000001 405.8742187500002 877.6345703125002 388.2785156250002z" />
    <glyph glyph-name="ruble"
      unicode="&#xE008;"
      horiz-adv-x="753.3780630105017" d="M69.497666277713 339.8961493582264C43.8010501750292 339.8961493582264 22.7765460910152 318.8716452742125 22.7765460910152 293.1750291715286S43.8010501750292 246.453908984831 69.497666277713 246.453908984831H186.3004667444574V66.5775962660443C186.3004667444574 40.8809801633605 207.3249708284714 19.8564760793466 233.0215869311552 19.8564760793466S279.742707117853 40.8809801633605 279.742707117853 66.5775962660443V246.453908984831H539.0449241540257C564.7415402567094 246.453908984831 585.7660443407234 267.4784130688448 585.7660443407234 293.1750291715287S564.7415402567094 339.8961493582265 539.0449241540257 339.8961493582265H279.742707117853V436.8424737456244H460.7870478413069C609.1266044340724 436.8424737456244 730.6015169194866 558.3173862310385 730.6015169194866 706.656942823804S609.1266044340723 976.4714119019836 460.7870478413069 976.4714119019836H234.1896149358227C210.8290548424738 976.4714119019836 192.1406067677946 960.1190198366394 188.6365227537923 937.926487747958C187.4684947491249 933.2543757292882 186.3004667444575 928.5822637106183 186.3004667444575 923.9101516919486V531.4527421236872H69.497666277713C43.8010501750292 531.4527421236872 22.7765460910152 510.4282380396733 22.7765460910152 484.7316219369894S43.8010501750292 438.0105017502917 69.497666277713 438.0105017502917H186.3004667444575V341.0641773628938H69.497666277713V339.8961493582264zM279.742707117853 883.0291715285881H460.7870478413069C557.7333722287048 883.0291715285881 637.1592765460911 803.6032672112019 637.1592765460911 706.656942823804S557.7333722287048 530.2847141190199 460.7870478413069 530.2847141190199H279.742707117853V883.0291715285881z" />
    <glyph glyph-name="sravnenie"
      unicode="&#xE009;"
      horiz-adv-x="875.875" d="M62.5625 1001A62.5625 62.5625 0 0 0 125.125 938.4375V62.5625A62.5625 62.5625 0 1 0 0 62.5625V938.4375A62.5625 62.5625 0 0 0 62.5625 1001zM563.0625 1001A62.5625 62.5625 0 0 0 625.625 938.4375V62.5625A62.5625 62.5625 0 1 0 500.5 62.5625V938.4375A62.5625 62.5625 0 0 0 563.0625 1001zM312.8125 750.75A62.5625 62.5625 0 0 0 375.375 688.1875V62.5625A62.5625 62.5625 0 1 0 250.25 62.5625V688.1875A62.5625 62.5625 0 0 0 312.8125 750.75zM813.3125 750.75A62.5625 62.5625 0 0 0 875.875 688.1875V62.5625A62.5625 62.5625 0 1 0 750.75 62.5625V688.1875A62.5625 62.5625 0 0 0 813.3125 750.75z" />
    <glyph glyph-name="star"
      unicode="&#xE00A;"
      horiz-adv-x="1001" d="M500.5 211.560368627451L809.809 25.0250000000001L727.976268627451 376.825468627451L1001 613.4128000000001L641.091431372549 644.294631372549L500.5 975.975L359.9105313725491 644.294631372549L0 613.4128000000001L273.0237313725491 376.825468627451L191.191 25.0250000000001z" />
    <glyph glyph-name="tv"
      unicode="&#xE00B;"
      horiz-adv-x="1122.2086626620298" d="M407.6155548529877 440.8450837812204L439.2627252608284 409.1979133733797L439.2627252608284 716.8084097375909L407.6155548529877 748.4555801454316zM296.2175150173886 748.4555801454316L327.8646854252292 716.8084097375909L550.6607650964273 716.8084097375909L519.0135946885867 748.4555801454316zM708.5801454315522 442.110970597534L740.2273158393929 410.4638001896933L634.5257666772051 717.7578248498262L602.8785962693644 749.4049952576668zM719.340183370218 442.110970597534L750.9873537780587 410.4638001896933L856.6889029402465 717.7578248498262L825.0417325324058 749.4049952576668zM1099.106228264306 978.2140373063548H23.1024343977238V212.3525134366108H1099.106228264306V978.2140373063548H1099.106228264306zM303.1798925071135 22.7859626936453L334.8270629149542 -8.8612077141954L849.7265254505215 -8.8612077141954L818.079355042681 22.7859626936453zM516.1653493518811 48.7366424280746L547.8125197597217 17.089472020234L547.8125197597217 169.6288333860259L516.1653493518811 201.2760037938666zM605.4103699019918 48.7366424280746L637.0575403098323 17.089472020234L637.0575403098323 169.6288333860259L605.4103699019918 201.2760037938666z" />
  </font>
</defs>
</svg>
